<svg viewBox="0 0 24 24">
<path fill="currentColor" fill-rule="evenodd" clip-rule="evenodd" d="M7.733 15.39c.273-.274.752-.135.86.249l.082.288c.043.154.122.298.228.419.443.42 1.132.427 1.55.01.416-.417.41-1.104-.008-1.548a1.078 1.078 0 0 0-.42-.23l-.29-.082c-.383-.108-.522-.587-.249-.86l1.665-1.665.171-.17-1.528-1.529c-.07.287-.215.552-.428.764l-.001.002h-.001c-.649.649-1.726.627-2.401-.048-.675-.676-.697-1.753-.049-2.401l.002-.002c.213-.213.478-.359.765-.428L6.156 6.633.964 11.825l5.167 5.167 1.602-1.602zM11.825.964L6.631 6.158l.619.62-.003.002 1.12 1.12c.285.285.166.76-.214.852l-.286.07a.975.975 0 0 0-.456.253l-.011.012c-.382.388-.367 1.029.035 1.43.403.403 1.043.418 1.432.035l.006-.006.004-.005a.975.975 0 0 0 .254-.456l.07-.285c.093-.38.567-.5.851-.214l1.74 1.739 1.121-1.121.514-.515a1.795 1.795 0 0 1-.736-.414l.001-.001c-.687-.715-.702-1.833-.025-2.51.677-.676 1.794-.662 2.51.025.198.212.34.465.415.735l.803-.802.594-.594L11.825.964zm4.054 7.258c-.274.273-.753.134-.861-.25l-.081-.288a1.078 1.078 0 0 0-.229-.418c-.443-.42-1.132-.428-1.55-.01-.416.417-.41 1.104.008 1.547.122.108.266.187.421.23l.289.082c.383.108.522.587.249.86L12.46 11.64l-.171.17 1.528 1.53c.07-.288.216-.553.428-.765l.001-.001.001-.001c.649-.649 1.726-.627 2.401.048.676.676.698 1.753.049 2.401l-.001.001-.001.002a1.621 1.621 0 0 1-.765.428l1.526 1.525 5.191-5.192-5.166-5.167-1.602 1.603zM13.533 20.9a.341.341 0 0 1 .482.01c.136.136.14.352.01.482l-1.865 1.865a.512.512 0 0 1-.723-.015L.369 12.174a.512.512 0 0 1-.015-.723L11.451.354a.512.512 0 0 1 .723.015l11.068 11.068c.204.203.21.527.015.723l-8.282 8.282a.341.341 0 0 1-.482-.01.341.341 0 0 1-.01-.482l2.498-2.497-.62-.62.003-.002-1.12-1.12c-.285-.285-.165-.759.214-.851l.286-.07a.975.975 0 0 0 .46-.258l.007-.007c.382-.39.367-1.03-.035-1.431-.402-.403-1.043-.418-1.432-.035l-.01.01a.975.975 0 0 0-.254.457l-.07.285c-.092.38-.566.5-.851.215l-1.74-1.74-1.12 1.122-.515.514c.27.076.524.217.736.415h-.001c.687.716.702 1.833.025 2.51-.676.677-1.794.662-2.51-.025a1.795 1.795 0 0 1-.415-.735l-.802.802-.595.595 5.164 5.163 1.747-1.747z" fill="#0550A0" fill-rule="evenodd"/>
</svg>
